[{
    "name": "Anna Smith",
    "role": "Executive Director",
    "phone": "+02 133 4568",
    "mail": "a.smith@gmail.com",
    "personalDescription": "I am originally from Southern California, Long Beach area and transitioned to Texas in 2004. After spending 12 years in Cedar Creek, Texas (near Austin) with my husband and four children, we have embarked on a new chapter in Eugene, Oregon.<br>I have more than 15 years of experience in various administrative and academic roles in healthcare administration ranging from outpatient clinics to hospitals in both California and Texas. I fell in love with college health while serving in a senior leadership role at The University of Texas at Austin University Health Services from 2010 to 2016. I served in leadership roles for nationally recognized healthcare organizations such as Scott & White Healthcare, City of Austin David Powell Clinic, and Memorial Care (Long Beach Memorial and Maritime Clinic).<br>As the Executive Director, I bring a strong financial lens to increase efficiencies and overall effectiveness to support our students in achieving their potential. I am passionate about quality, accessible and affordable care, and diversity with a commitment to providing a superior level of service in all that we do. It is my hope that students and parents overwhelmingly and emphatically choose University of Oregon University Health Center for their complete healthcare needs.",
    "education": "PhD, Higher Education Administration<br>MBA, Health Care Management<br>BA, Psychology",
    "id": "1"
}, {
    "name": "Anthony Robin",
    "role": "Medical Director",
    "phone": "+02 120 4553",
    "mail": "a.robin@gmail.com",
    "personalDescription": "Born in Victoria, Canada, I grew up in the San Francisco Bay Area. I was fascinated with the complexity of the world around me and so graduated with a BS in biology from Santa Clara University and went on to obtain a medical degree from Georgetown University. I completed my residency in family medicine at Madigan Army Medical Center in Tacoma, Washington.<br>Following service in the US military, I had the opportunity to train physicians specializing in rural and indigent care in the Salinas Valley of California. While there I was able to practice many aspects of family medicine ranging from obstetric to HIV care. I continued to train physicians at the University of California, Davis, and, after discovering Oregon moved to Eugene.<br>Oregon has given my family and me the opportunity to enjoy biking, hiking, rain, rural adventures, and the beach. The university has given me the opportunity to work together with students on health issues so that health problems do not keep any one of us from reaching our goals.",
    "education": "PhD, Higher Education Administration<br>MBA, Health Care Management<br>BA, Psychology",
    "id": "2"
}, {
    "name": "John Will",
    "role": "Medical Assistant",
    "phone": "+02 131 8732",
    "mail": "j.will@gmail.com",
    "personalDescription": "University of Oregon: 2010 to present<br>Health South, Select Physical Therapy: outpatient, orthopedic clinic<br>Alaska Center for Children and Adults: early intervention physical therapist<br>Clodagh has also worked as a physical therapist in a variety of settings, from private practice to hospital based clinics, in Ireland, New Zealand and Botswana.<br>My professional areas of interest include sports injuries, post surgical rehabilitation,   and manual therapy.<br>Outside of work, I enjoy spending time with my husband and three kids, traveling within the US and internationally, watching sports, volunteering at my local church, hiking, biking, canoeing, and camping.",
    "education": "BS-University College Dublin, Ireland, Physical Therapy, 1997",
    "id": "3"
}, {
    "name": "Paula York",
    "role": "Therapy Aide",
    "phone": "+02 142 7788",
    "mail": "p.york@gmail.com",
    "personalDescription": "University of Oregon: 2010 to present <br>Health South, Select Physical Therapy: outpatient, orthopedic clinic<br>Alaska Center for Children and Adults: early intervention physical therapist<br>Clodagh has also worked as a physical therapist in a variety of settings, from private practice to hospital based clinics, in Ireland, New Zealand and Botswana.<br>My professional areas of interest include sports injuries, post surgical rehabilitation, and manual therapy. <br>Outside of work, I enjoy spending time with my husband and three kids, traveling within the US and internationally, watching sports, volunteering at my local church, hiking, biking, canoeing, and camping.",
    "education": "BS—University College Dublin, Ireland, Physical Therapy, 1997",
    "id": "4"
}, {
    "name": "Sarah Blue",
    "role": "Psychiatrist",
    "phone": "+02 135 5368",
    "mail": "s.blue@gmail.com",
    "personalDescription": "Psychiatrist, Lane County Behavioral Health, Eugene, OR, 2014–2015<br>Medical Director of Diversion Services, Mental Health Cooperative, Nashville, TN, 2010–2014<br>Supervising Psychiatrist, The Next Door, Nashville, TN, 2013–2014<br>Adult Psychiatrist, Mental Health Cooperative, Nashville, TN, 2006–2014<br>I enjoy spending time with my family, listening to live music, traveling, playing soccer, dancing, and cooking.  ",
    "education": "Chief resident, Department of Psychiatry, University of North Carolina at Chapel Hill, 2004–2005<br>Psychiatry residency, University of North Carolina at Chapel Hill, 2001–2005<br>MD, Vanderbilt University School of Medicine, Nashville, TN, 2001<br>BS, University of California, Davis, 1996 ",
    "id": "5"
}, {
    "name": "Benjamin Land",
    "role": "Family Counselor",
    "phone": "+02 135 9954",
    "mail": "b.land@gmail.com",
    "personalDescription": "I have been counseling families and individuals of all ages  for over 20 years. Since moving to Eugene in 1998, I have worked at Options Counseling Center, The Child Center and Direction Service Counseling Center. I also worked for 7.5 years as a crisis worker and crisis team supervisor at Sacred Heart Medical Center Emergency Department.<br>I specialize in mood disorders and PTSD primarily utilizing a person-centered, cognitive behavioral and brief solution-focused therapy approach. I believe in interacting with each unique individual I meet with an open mind, respect and compassion.<br>I enjoy reading, cooking, traveling, meeting new people and learning about different cultures and foods. I recently spent 10 months on sabbatical in Playa del Carmen, Mexico. I love beaches, swimming, snorkeling and spending time with my teenage daughters. ",
    "education": "1993 Master of Science in Counseling (Graduated with Honors)<br>California State University, Northridge",
    "id": "6"
}]
